---
http_interactions:
- request:
    method: get
    uri: https://www.flickr.com/services/rest?api_key=03004ca1ef57038fab5e21968db1fccf&format=json&method=flickr.photos.search&nojsoncallback=1&per_page=1&text=skyline
    body:
      encoding: US-ASCII
      string: ''
    headers:
      User-Agent:
      - Faraday v1.4.1
      Accept-Encoding:
      - gzip;q=1.0,deflate;q=0.6,identity;q=0.3
      Accept:
      - "*/*"
  response:
    status:
      code: 200
      message: OK
    headers:
      Content-Type:
      - application/json
      Content-Length:
      - '249'
      Connection:
      - keep-alive
      Date:
      - Tue, 27 Apr 2021 16:05:01 GMT
      Server:
      - Apache/2.4.46 (Ubuntu)
      Set-Cookie:
      - ccc=%7B%22needsConsent%22%3Afalse%2C%22managed%22%3A0%2C%22changed%22%3A0%2C%22info%22%3A%7B%22cookieBlock%22%3A%7B%22level%22%3A0%2C%22blockRan%22%3A0%7D%7D%7D;
        expires=Thu, 27-May-2021 16:05:01 GMT; Max-Age=2592000; path=/; domain=.flickr.com
      X-Content-Type-Options:
      - nosniff
      X-Frame-Options:
      - SAMEORIGIN
      X-Cache:
      - Miss from cloudfront
      Via:
      - 1.1 f0b290c4e2273a7586bc6f080031d9bc.cloudfront.net (CloudFront)
      X-Amz-Cf-Pop:
      - DEN50-C2
      X-Amz-Cf-Id:
      - pnpDpG2BBsTDu6HcitJOyozqxh5j6lDjkGIzMyYBATlWM7gmBYw49A==
    body:
      encoding: UTF-8
      string: '{"photos":{"page":1,"pages":120602,"perpage":1,"total":"120602","photo":[{"id":"51142370991","owner":"13472501@N08","secret":"7c1e7627fb","server":"65535","farm":66,"title":"Penarth
        Foot Bridge","ispublic":1,"isfriend":0,"isfamily":0}]},"stat":"ok"}'
  recorded_at: Tue, 27 Apr 2021 16:05:01 GMT
recorded_with: VCR 6.0.0
