---
http_interactions:
- request:
    method: get
    uri: https://www.flickr.com/services/rest?api_key=03004ca1ef57038fab5e21968db1fccf&format=json&method=flickr.photos.search&nojsoncallback=1&per_page=1&text=skyline
    body:
      encoding: US-ASCII
      string: ''
    headers:
      User-Agent:
      - Faraday v1.4.1
      Accept-Encoding:
      - gzip;q=1.0,deflate;q=0.6,identity;q=0.3
      Accept:
      - "*/*"
  response:
    status:
      code: 200
      message: OK
    headers:
      Content-Type:
      - application/json
      Content-Length:
      - '249'
      Connection:
      - keep-alive
      Date:
      - Tue, 27 Apr 2021 16:06:08 GMT
      Server:
      - Apache/2.4.46 (Ubuntu)
      Set-Cookie:
      - ccc=%7B%22needsConsent%22%3Afalse%2C%22managed%22%3A0%2C%22changed%22%3A0%2C%22info%22%3A%7B%22cookieBlock%22%3A%7B%22level%22%3A0%2C%22blockRan%22%3A0%7D%7D%7D;
        expires=Thu, 27-May-2021 16:06:08 GMT; Max-Age=2592000; path=/; domain=.flickr.com
      X-Content-Type-Options:
      - nosniff
      X-Frame-Options:
      - SAMEORIGIN
      X-Cache:
      - Miss from cloudfront
      Via:
      - 1.1 e158a5cd644f102abc630a9f56b59d78.cloudfront.net (CloudFront)
      X-Amz-Cf-Pop:
      - DEN50-C2
      X-Amz-Cf-Id:
      - 6YBarGrjqbItUwMq9nAFgcwYGiuXwuIJ5lFeqzrNskdQ_K5KhFU1rg==
    body:
      encoding: UTF-8
      string: '{"photos":{"page":1,"pages":120600,"perpage":1,"total":"120600","photo":[{"id":"51142370991","owner":"13472501@N08","secret":"7c1e7627fb","server":"65535","farm":66,"title":"Penarth
        Foot Bridge","ispublic":1,"isfriend":0,"isfamily":0}]},"stat":"ok"}'
  recorded_at: Tue, 27 Apr 2021 16:06:08 GMT
- request:
    method: get
    uri: https://www.flickr.com/services/rest?api_key=03004ca1ef57038fab5e21968db1fccf&format=json&method=flickr.photos.getInfo&nojsoncallback=1&photo_id=22377206314
    body:
      encoding: US-ASCII
      string: ''
    headers:
      User-Agent:
      - Faraday v1.4.1
      Accept-Encoding:
      - gzip;q=1.0,deflate;q=0.6,identity;q=0.3
      Accept:
      - "*/*"
  response:
    status:
      code: 200
      message: OK
    headers:
      Content-Type:
      - application/json
      Transfer-Encoding:
      - chunked
      Connection:
      - keep-alive
      Vary:
      - Accept-Encoding
      Date:
      - Tue, 27 Apr 2021 16:06:08 GMT
      Server:
      - Apache/2.4.46 (Ubuntu)
      Set-Cookie:
      - ccc=%7B%22needsConsent%22%3Afalse%2C%22managed%22%3A0%2C%22changed%22%3A0%2C%22info%22%3A%7B%22cookieBlock%22%3A%7B%22level%22%3A0%2C%22blockRan%22%3A0%7D%7D%7D;
        expires=Thu, 27-May-2021 16:06:08 GMT; Max-Age=2592000; path=/; domain=.flickr.com
      X-Content-Type-Options:
      - nosniff
      X-Frame-Options:
      - SAMEORIGIN
      X-Cache:
      - Miss from cloudfront
      Via:
      - 1.1 6cab218159221ab723900fb6fe65d73f.cloudfront.net (CloudFront)
      X-Amz-Cf-Pop:
      - DEN50-C2
      X-Amz-Cf-Id:
      - ziZXZGCA2xMa8SA23ysA8VL8oA0FYjxuAsagJ4iZudvnOAXtGNuQCA==
    body:
      encoding: ASCII-8BIT
      string: '{"photo":{"id":"22377206314","secret":"00e0cbc0f4","server":"686","farm":1,"dateuploaded":"1447475168","isfavorite":0,"license":"0","safety_level":"0","rotation":0,"owner":{"nsid":"100994752@N02","username":"(Fieger
        Photography) Captions by Nica...","realname":"Nica","location":"Canada","iconserver":"7349","iconfarm":8,"path_alias":"captions_by_nica"},"title":{"_content":"Weather..."},"description":{"_content":""},"visibility":{"ispublic":1,"isfriend":0,"isfamily":0},"dates":{"posted":"1447475168","taken":"2015-08-06
        03:35:42","takengranularity":"0","takenunknown":"0","lastupdate":"1534348037"},"views":"4054","editability":{"cancomment":0,"canaddmeta":0},"publiceditability":{"cancomment":1,"canaddmeta":0},"usage":{"candownload":0,"canblog":0,"canprint":0,"canshare":0},"comments":{"_content":"52"},"notes":{"note":[]},"people":{"haspeople":0},"tags":{"tag":[{"id":"100974404-22377206314-282","author":"100994752@N02","authorname":"(Fieger
        Photography) Captions by Nica...","raw":"sky","_content":"sky","machine_tag":0},{"id":"100974404-22377206314-223","author":"100994752@N02","authorname":"(Fieger
        Photography) Captions by Nica...","raw":"Sunset","_content":"sunset","machine_tag":0},{"id":"100974404-22377206314-4891","author":"100994752@N02","authorname":"(Fieger
        Photography) Captions by Nica...","raw":"dusk","_content":"dusk","machine_tag":0},{"id":"100974404-22377206314-936","author":"100994752@N02","authorname":"(Fieger
        Photography) Captions by Nica...","raw":"Weather","_content":"weather","machine_tag":0},{"id":"100974404-22377206314-1223","author":"100994752@N02","authorname":"(Fieger
        Photography) Captions by Nica...","raw":"clouds","_content":"clouds","machine_tag":0},{"id":"100974404-22377206314-791","author":"100994752@N02","authorname":"(Fieger
        Photography) Captions by Nica...","raw":"Nature","_content":"nature","machine_tag":0},{"id":"100974404-22377206314-4583","author":"100994752@N02","authorname":"(Fieger
        Photography) Captions by Nica...","raw":"Quebec","_content":"quebec","machine_tag":0},{"id":"100974404-22377206314-451","author":"100994752@N02","authorname":"(Fieger
        Photography) Captions by Nica...","raw":"Canada","_content":"canada","machine_tag":0},{"id":"100974404-22377206314-352","author":"100994752@N02","authorname":"(Fieger
        Photography) Captions by Nica...","raw":"cloud","_content":"cloud","machine_tag":0},{"id":"100974404-22377206314-4890","author":"100994752@N02","authorname":"(Fieger
        Photography) Captions by Nica...","raw":"outdoor","_content":"outdoor","machine_tag":0}]},"urls":{"url":[{"type":"photopage","_content":"https:\/\/www.flickr.com\/photos\/captions_by_nica\/22377206314\/"}]},"media":"photo"},"stat":"ok"}'
  recorded_at: Tue, 27 Apr 2021 16:06:08 GMT
recorded_with: VCR 6.0.0
